1:
3.8
3.5
3.4
4.7
3.8
4.0
3.5
3.8
4.1
3.7
2.8
3.7
4.2
4.1
3.0
4.3
3.9
4.3
4.2
4.2
3.3
5.0
3.6
1000:
3.2
3.0
2.8
4.5
3.6
3.5
3.3
3.9
3.1
2.9
3.3
3.6
3.3
4.2
3.9
3.1
3.1
3.1
3.2
3.6
3.6
3.9
2.5
3.1
4.0
3.2
3.6
10001:
3.6
4.2
3.9
2.9
4.1
3.4
3.5
3.9
3.9
2.9
4.1
4.1
3.0
4.1
3.8
3.9
4.3
10004:
5.0
4.1
4.3
3.9
4.6
4.3
4.4
4.2
4.3
4.1
4.1
3.9
4.3
3.8
5.0
4.5
4.4
4.4
4.6
4.9
4.2
4.0
3.8
4.1
5.0
3.9
4.2
4.3
3.3
4.6
4.5
10007:
2.3
2.8
2.5
2.4
2.2
2.7
2.3
3.0
2.5
2.9
2.4
2.9
2.6
10008:
4.7
3.5
3.6
3.2
4.3
4.1
4.0
10009:
3.8
3.6
4.6
2.9
2.7
3.5
1001:
3.2
3.5
3.8
3.1
4.0
3.9
3.7
3.6
2.7
3.6
3.6
4.0
2.9
3.7
3.4
3.3
3.9
3.7
3.0
3.2
3.2
3.6
3.3
2.8
3.5
2.9
3.6
3.6
3.9
4.0
3.6
4.5
3.0
3.4
3.3
3.5
4.0
2.8
3.4
3.7
3.9
3.0
3.6
3.9
4.0
3.8
3.4
3.1
3.2
4.0
3.2
2.3
2.6
3.5
4.0
4.1
3.5
3.3
3.4
3.2
3.4
3.1
3.0
2.9
4.0
3.2
2.8
3.0
3.9
3.4
2.9
3.3
3.5
3.0
2.3
3.7
2.7
2.5
3.6
3.5
4.1
3.9
2.6
2.9
3.5
3.2
3.3
4.1
3.3
3.0
4.0
3.4
3.3
3.7
3.1
2.7
3.1
4.5
3.3
3.9
3.5
3.7
3.1
3.1
3.2
3.4
3.6
3.8
3.6
2.7
3.1
3.3
3.4
3.0
3.4
2.5
3.0
4.1
3.7
3.1
3.3
3.4
3.5
3.4
3.2
3.3
3.1
3.6
3.6
3.3
3.4
3.7
3.6
3.3
10010:
2.4
2.2
2.2
3.0
2.6
2.2
2.5
2.3
2.0
2.6
2.2
2.0
2.3
1.9
2.9
2.2
2.0
2.7
1.5
2.3
2.0
1.9
2.3
10012:
3.4
4.2
3.4
3.4
3.9
4.0
2.8
2.8
3.3
3.6
4.0
3.3
3.4
10013:
3.5
3.1
3.4
3.6
3.4
3.5
3.0
3.6
3.3
3.8
2.8
4.0
3.6
3.4
3.1
3.3
2.8
3.2
3.3
2.8
3.1
3.0
3.2
3.8
3.7
3.1
3.3
2.7
3.1
3.4
2.9
3.2
3.0
3.8
3.2
3.0
3.3
3.9
3.9
2.8
4.1
3.3
3.7
3.8
3.2
2.8
3.3
3.5
3.2
3.6
3.1
3.1
3.6
3.7
3.2
2.6
3.8
10015:
3.8
3.3
3.0
3.6
3.9
3.5
4.0
3.8
3.9
3.7
3.9
3.7
3.4
4.1
4.1
3.6
3.7
4.1
3.5
4.0
5.0
4.1
4.5
3.8
3.3
3.4
4.3
3.7
10018:
4.5
4.2
2.9
3.2
3.6
3.9
3.8
3.4
2.7
4.1
3.5
4.0
3.2
3.9
3.3
3.9
3.7
3.8
3.2
3.8
4.4
3.2
4.1
4.2
3.5
4.1
4.0
3.8
4.1
4.2
10019:
3.5
1.9
3.8
3.1
4.3
4.2
3.6
2.7
3.8
3.6
4.4
3.0
3.1
3.3
3.8
3.6
3.9
3.7
3.4
4.3
3.8
3.8
3.8
3.6
3.9
3.7
3.2
3.3
3.5
3.8
3.7
2.9
3.8
4.0
3.3
4.0
2.5
3.9
3.9
4.1
4.0
4.2
4.1
3.8
4.2
3.0
3.8
4.1
3.5
3.6
3.2
3.4
3.9
3.3
1.1
2.5
2.8
3.3
4.3
3.4
3.1
3.4
4.6
3.4
4.0
4.6
3.4
4.6
3.6
1002:
3.5
2.8
3.4
3.6
2.9
3.6
4.1
2.6
3.5
3.7
4.1
3.5
3.4
3.1
10020:
4.0
4.1
3.9
4.2
3.9
3.7
3.8
4.3
4.1
4.0
3.9
4.8
4.1
3.7
4.0
3.9
4.3
3.5
4.2
3.7
4.4
3.5
3.8
3.8
3.4
2.7
4.2
10022:
2.4
3.4
3.0
2.9
3.5
3.4
2.6
2.6
10023:
3.9
3.9
3.9
3.6
4.7
3.6
3.5
3.8
3.5
3.9
4.4
10024:
3.5
3.9
3.5
3.8
3.6
3.6
3.1
3.3
3.7
3.7
10027:
4.5
4.1
3.8
3.8
3.2
3.8
3.5
4.8
3.2
4.5
3.8
3.9
4.2
3.6
3.9
4.6
3.6
4.1
4.2
4.1
3.4
3.8
3.9
4.1
4.3
4.1
4.4
4.5
5.0
4.5
4.5
4.2
3.4
3.9
4.4
4.2
4.7
4.1
4.1
3.7
4.4
4.5
5.0
3.8
3.7
4.5
4.1
4.0
4.3
4.3
3.9
4.3
3.8
3.7
3.6
4.0
3.6
3.7
4.4
4.2
3.8
3.5
4.5
3.4
4.5
5.0
3.5
4.2
3.4
4.3
4.2
4.2
4.4
4.2
4.5
4.0
4.3
3.8
3.1
3.8
4.7
4.8
3.5
4.0
4.1
4.3
3.9
4.1
10028:
3.4
3.6
3.4
4.3
4.7
3.3
4.5
10031:
3.3
2.8
3.6
2.5
3.8
3.0
2.7
2.3
2.8
10032:
3.2
4.7
4.1
4.2
4.1
2.9
3.6
3.4
3.8
2.7
3.2
4.2
4.6
3.5
4.1
2.9
3.6
3.5
3.4
3.7
3.3
3.6
3.4
3.5
3.8
3.1
3.0
3.5
4.4
3.3
3.6
3.8
4.1
3.8
2.7
4.0
3.7
3.3
3.5
3.6
3.5
3.7
3.5
3.1
3.4
3.6
3.9
10033:
4.0
3.5
2.9
3.8
3.2
3.1
3.4
3.3
3.9
3.3
4.0
3.6
4.8
4.1
10035:
2.8
4.6
4.5
4.4
4.4
4.4
4.1
3.7
3.6
3.8
4.1
3.9
4.1
4.2
3.9
3.9
4.1
4.3
4.3
5.0
10036:
4.1
3.5
3.6
3.4
3.9
4.0
3.2
3.8
3.0
3.2
3.3
3.7
4.1
4.0
4.6
4.1
3.7
4.0
2.8
3.2
3.8
3.5
4.9
4.0
3.7
4.2
3.9
4.1
4.1
3.2
3.7
3.2
3.1
3.4
3.1
3.6
3.8
3.8
3.6
4.0
3.5
3.7
4.3
3.8
4.0
4.2
4.5
5.0
3.3
4.1
3.4
3.9
3.7
3.1
3.7
3.8
3.7
4.8
3.6
4.1
3.8
4.4
3.4
4.4
3.2
4.5
3.9
3.7
3.9
4.1
4.6
4.1
4.0
3.4
3.9
4.2
4.2
3.3
4.2
4.2
3.8
3.8
4.5
4.1
3.0
3.9
3.6
4.0
4.0
3.5
2.8
4.3
3.6
4.2
3.7
3.4
3.3
4.0
3.6
4.2
4.2
3.0
3.6
4.4
3.7
3.1
4.8
3.3
3.8
3.9
3.9
3.5
3.5
3.7
3.6
3.7
4.6
3.5
3.7
4.0
3.8
3.9
4.0
3.7
3.9
3.4
3.9
4.5
3.7
3.5
4.3
3.3
3.4
5.0
3.7
3.4
4.0
3.8
4.2
3.1
4.5
4.2
3.8
3.8
3.2
4.7
3.5
3.9
3.5
3.5
4.3
3.9
4.1
3.7
3.6
3.6
4.8
3.9
3.7
4.4
4.1
3.7
4.0
4.1
3.8
3.8
4.1
4.4
4.2
3.6
3.4
3.6
4.2
3.7
4.0
4.0
3.6
4.1
4.0
4.4
3.8
4.4
3.4
3.9
4.7
3.7
3.8
3.4
4.1
3.7
3.6
3.3
4.0
4.6
4.1
3.2
3.8
4.3
3.3
3.9
3.8
3.8
3.5
4.0
3.1
4.8
3.8
4.5
4.1
3.7
3.6
3.5
4.4
3.7
3.6
10037:
4.1
3.1
3.5
3.9
3.8
3.8
3.4
2.9
3.5
3.9
3.5
3.5
3.0
3.5
10038:
4.3
3.1
3.3
3.1
3.3
3.7
3.7
3.1
1004:
2.4
2.1
3.0
2.7
3.0
3.0
2.5
3.5
2.2
2.9
3.1
3.3
3.3
3.4
2.6
2.2
2.8
3.1
2.7
2.9
3.0
3.4
3.4
1.7
2.5
2.2
2.9
2.9
2.6
3.0
2.5
10041:
4.1
3.0
3.3
2.8
3.1
3.0
3.7
3.1
1.3
2.8
1.0
3.4
3.7
2.4
3.2
3.3
3.1
2.7
3.0
2.5
2.9
3.3
2.9
3.1
3.4
2.5
3.2
2.5
3.2
2.6
3.3
10042:
4.6
4.0
4.5
4.1
4.5
5.0
5.0
4.3
5.0
4.3
4.6
4.3
4.8
4.4
4.5
4.8
3.9
5.0
5.0
4.6
5.0
4.9
3.7
4.4
4.6
5.0
4.9
3.5
4.7
4.6
4.8
4.7
4.5
4.8
4.7
5.0
4.5
5.0
4.4
3.9
4.6
4.4
4.3
4.2
5.0
4.9
4.6
4.1
4.5
4.1
4.3
4.8
5.0
3.0
5.0
4.9
3.9
4.7
4.0
4.4
4.5
4.7
4.6
4.5
3.8
3.9
4.3
5.0
4.6
4.2
4.2
4.6
4.6
4.3
3.8
5.0
4.9
4.4
4.5
4.7
4.0
5.0
4.6
4.5
4.9
4.2
5.0
4.7
4.0
5.0
4.3
4.6
5.0
4.4
4.5
4.4
4.2
4.5
4.5
4.3
4.8
4.8
4.0
5.0
4.8
4.4
4.5
4.5
5.0
4.7
5.0
4.5
4.6
4.8
4.4
4.5
4.6
4.1
4.6
5.0
4.1
5.0
4.4
5.0
4.7
5.0
4.0
4.3
4.6
4.1
4.2
4.6
4.5
2.9
4.4
4.5
5.0
5.0
4.2
5.0
4.4
5.0
4.4
3.9
4.6
4.4
4.6
3.8
4.2
4.8
4.3
4.7
5.0
4.5
4.8
3.9
4.3
3.8
4.0
4.7
3.9
4.9
4.5
4.6
4.1
4.9
4.3
4.3
4.4
4.5
4.9
4.9
4.1
4.6
4.9
4.3
4.7
5.0
5.0
4.3
4.5
5.0
5.0
4.3
4.6
5.0
4.2
3.9
4.4
4.9
4.2
4.5
4.8
4.1
4.9
5.0
4.9
4.5
4.5
4.5
4.7
4.9
4.6
4.7
4.7
3.3
4.7
4.6
4.6
4.3
4.2
4.3
5.0
5.0
5.0
4.9
5.0
4.7
4.5
4.7
4.5
4.7
5.0
4.9
4.6
4.7
4.9
4.2
5.0
4.6
4.6
4.6
4.9
5.0
5.0
4.4
5.0
4.2
5.0
4.5
4.2
5.0
5.0
4.8
4.7
5.0
5.0
4.8
4.5
4.7
3.9
4.6
5.0
4.4
4.2
5.0
4.2
4.8
4.7
4.0
4.5
4.7
4.3
5.0
3.8
4.4
5.0
4.8
4.6
4.3
4.5
4.9
4.4
4.2
5.0
4.1
4.5
4.5
5.0
4.8
4.5
4.2
4.8
4.3
4.7
4.3
4.4
4.9
4.3
4.7
4.7
4.1
4.7
4.2
4.2
4.1
4.4
4.8
4.3
4.4
4.8
4.6
4.6
4.6
4.0
4.5
4.5
5.0
4.7
4.3
4.5
4.6
5.0
4.7
4.5
5.0
4.7
4.9
4.9
4.3
4.7
4.3
4.9
4.7
5.0
4.8
4.9
4.6
5.0
4.5
4.9
5.0
4.0
4.8
4.3
4.8
5.0
5.0
4.3
4.9
4.9
5.0
4.9
5.0
4.2
4.7
4.8
5.0
4.3
4.9
5.0
4.3
4.8
4.6
4.1
4.7
4.9
4.8
4.3
4.7
4.3
4.3
4.5
4.6
4.5
4.3
4.1
4.3
5.0
5.0
5.0
4.5
4.4
4.3
4.7
5.0
3.9
3.8
4.6
4.7
4.5
4.6
4.0
4.5
4.3
4.9
4.6
4.3
4.1
4.5
4.6
4.3
4.5
4.0
4.2
5.0
4.6
4.3
4.4
4.5
4.4
4.4
4.1
4.3
4.5
4.5
4.7
4.4
3.8
4.8
4.9
4.1
4.6
4.5
5.0
4.6
4.1
5.0
4.5
4.0
5.0
4.5
4.7
5.0
4.6
4.3
4.9
5.0
4.9
4.5
4.3
4.9
4.1
4.6
5.0
4.0
4.4
3.4
4.3
5.0
5.0
5.0
4.5
4.5
5.0
5.0
5.0
4.8
4.4
4.1
4.3
4.9
5.0
4.8
5.0
4.9
4.2
4.7
4.1
4.9
4.6
4.5
4.4
4.1
5.0
4.5
5.0
5.0
4.7
5.0
4.8
4.5
4.2
5.0
4.9
4.9
4.7
5.0
4.2
4.0
4.6
4.7
4.4
4.1
5.0
4.3
5.0
4.5
4.7
4.2
4.5
4.3
4.0
4.6
4.5
4.8
4.4
4.6
4.5
4.2
4.5
4.1
4.5
4.1
4.1
5.0
4.7
4.8
4.0
4.6
4.5
4.8
4.6
4.4
4.8
4.8
5.0
5.0
4.2
4.4
4.8
4.2
4.1
4.4
5.0
4.7
4.5
3.8
3.8
5.0
4.8
4.1
4.6
4.8
5.0
4.3
5.0
5.0
4.9
4.5
4.1
4.9
4.7
4.5
4.9
5.0
3.9
5.0
5.0
4.5
4.3
3.6
5.0
2.1
4.4
4.8
4.5
4.3
4.2
5.0
4.5
4.1
4.8
4.5
4.7
4.9
4.4
4.1
4.5
3.9
4.6
3.4
4.0
4.9
4.2
5.0
4.5
3.8
4.5
4.5
5.0
4.2
4.4
4.3
4.6
4.7
5.0
5.0
5.0
4.4
4.4
4.5
4.1
4.2
3.9
4.5
4.7
4.7
4.3
4.1
4.6
5.0
4.5
4.4
3.8
4.7
4.4
4.4
5.0
4.0
4.3
4.2
5.0
4.8
4.2
4.3
3.8
5.0
4.8
4.2
4.1
4.5
4.7
4.3
4.0
4.5
3.9
3.8
4.6
4.4
4.6
4.8
4.6
4.3
4.5
4.1
5.0
4.5
4.4
5.0
4.4
4.1
4.7
4.6
4.8
4.8
5.0
4.4
4.4
4.4
4.5
4.5
4.5
4.7
4.9
4.8
4.4
5.0
4.4
4.6
3.7
5.0
3.9
4.3
4.8
4.9
4.4
4.1
4.4
4.6
4.5
4.3
4.8
5.0
5.0
4.7
4.0
4.6
4.5
4.3
5.0
4.3
4.8
4.0
4.5
4.3
4.4
5.0
4.3
4.4
4.3
5.0
4.5
4.4
4.5
4.7
4.7
4.8
4.5
4.5
5.0
3.4
4.7
4.7
4.7
4.8
4.4
4.2
4.2
4.5
4.4
4.2
4.6
4.9
4.6
4.9
4.7
4.7
5.0
4.7
4.1
4.9
5.0
4.7
4.0
4.2
4.6
3.5
4.1
4.1
4.6
4.3
5.0
4.2
5.0
4.8
4.4
4.4
5.0
4.3
4.5
4.5
3.9
4.8
4.6
4.5
4.9
4.7
4.7
5.0
4.2
5.0
5.0
4.6
4.6
5.0
10043:
4.2
4.1
4.0
4.5
3.9
3.9
3.5
4.1
4.7
3.8
4.2
4.5
3.9
4.7
4.0
3.6
4.4
4.0
4.1
3.7
4.4
4.4
4.3
4.4
3.7
4.3
4.1
4.5
4.4
3.5
4.1
4.1
4.0
4.1
4.2
3.8
4.1
4.5
4.5
3.6
2.9
3.6
2.9
4.0
3.8
4.2
3.9
4.4
3.9
4.3
4.0
4.2
3.8
4.1
4.2
3.7
3.8
3.7
4.4
4.7
3.9
4.3
3.6
4.0
10044:
4.0
3.7
3.3
3.4
3.8
4.3
3.8
3.8
3.2
3.4
3.5
3.0
3.2
4.0
4.5
4.5
4.3
3.0
4.5
4.1
3.5
3.9
3.6
4.0
3.4
3.4
3.0
3.7
3.8
3.9
3.5
3.9
4.3
3.3
4.1
3.7
3.7
3.9
3.5
3.5
3.8
4.7
3.5
3.0
4.2
3.5
3.6
3.1
3.7
3.7
3.5
3.3
3.1
3.6
3.4
3.8
3.7
3.6
3.4
3.5
4.0
3.7
4.1
3.4
10047:
3.9
4.8
4.1
4.6
4.5
3.6
4.3
4.0
10048:
3.2
3.2
2.9
2.9
3.5
3.9
2.7
1005:
3.2
2.9
2.9
2.7
3.2
3.1
3.2
2.8
3.3
3.0
3.0
2.9
2.9
10050:
2.8
2.7
3.0
2.5
3.2
2.5
10051:
3.3
3.0
3.1
4.0
3.4
3.8
3.3
4.2
3.7
2.1
3.5
4.3
3.2
3.7
3.7
4.4
3.5
3.8
3.2
4.4
3.1
0.85