1:
3.67
3.52
3.61
4.2
3.7
3.79
3.54
3.68
3.86
3.63
3.14
3.62
3.92
3.85
3.24
3.96
3.75
4.1
3.91
3.94
3.39
4.38
3.59
10:
3.29
3.16
1000:
3.44
3.26
3.14
4.14
3.61
3.56
3.48
3.79
3.36
3.22
3.46
3.63
3.44
3.97
3.78
3.34
3.32
3.34
3.42
3.64
3.64
3.78
2.99
3.35
3.85
3.37
3.63
10000:
3.65
3.75
10001:
3.63
3.98
3.77
3.2
3.9
3.51
3.56
3.81
3.81
3.23
3.91
3.92
3.3
3.94
3.73
3.81
4.04
10002:
3.97
3.49
4.2
3.84
10003:
2.8
10004:
4.38
3.88
4.0
3.8
4.18
4.0
4.06
3.96
3.98
3.95
3.89
3.76
3.97
3.73
4.6
4.13
4.06
4.05
4.15
4.35
3.97
3.85
3.73
3.91
4.5
3.75
3.92
4.02
3.44
4.15
4.12
10005:
3.61
3.84
3.4
3.33
3.62
10006:
3.71
3.42
3.8
3.16
10007:
2.87
3.23
3.03
2.97
2.85
3.1
2.94
3.27
3.03
3.22
2.96
3.21
3.06
10008:
4.18
3.51
3.58
3.32
3.94
3.82
3.81
10009:
3.65
3.53
4.11
3.12
3.04
3.48
1001:
3.41
3.57
3.74
3.31
3.88
3.8
3.67
3.65
3.13
3.64
3.61
3.86
3.23
3.66
3.5
3.45
3.8
3.7
3.26
3.41
3.41
3.64
3.46
3.18
3.57
3.23
3.6
3.63
3.79
3.85
3.63
4.16
3.28
3.53
3.45
3.55
3.84
3.16
3.49
3.66
3.78
3.31
3.62
3.8
3.85
3.72
3.51
3.32
3.4
3.83
3.38
2.9
3.06
3.58
3.86
3.88
3.58
3.45
3.54
3.38
3.5
3.36
3.34
3.24
3.85
3.37
3.19
3.29
3.79
3.52
3.24
3.44
3.56
3.3
2.91
3.67
3.11
3.02
3.62
3.56
3.91
3.78
3.06
3.21
3.55
3.4
3.48
3.89
3.48
3.28
3.83
3.52
3.48
3.7
3.35
3.12
3.35
4.16
3.45
3.78
3.54
3.66
3.33
3.32
3.38
3.52
3.63
3.76
3.63
3.12
3.32
3.48
3.49
3.3
3.49
2.99
3.31
3.9
3.68
3.33
3.44
3.53
3.58
3.53
3.41
3.43
3.33
3.6
3.62
3.46
3.53
3.66
3.6
3.48
10010:
2.95
2.85
2.87
3.29
3.07
2.88
3.01
2.89
2.72
3.06
2.85
2.75
2.92
2.66
3.24
2.85
2.76
3.13
2.43
2.93
2.75
2.68
2.91
10011:
4.08
3.9
10012:
3.36
3.82
3.35
3.36
3.66
3.7
3.05
3.06
3.32
3.48
3.69
3.33
3.38
10013:
3.58
3.34
3.48
3.62
3.47
3.53
3.29
3.6
3.46
3.71
3.16
3.87
3.61
3.49
3.33
3.43
3.18
3.36
3.42
3.17
3.31
3.24
3.4
3.71
3.66
3.34
3.43
3.09
3.33
3.5
3.24
3.36
3.28
3.7
3.4
3.28
3.46
3.79
3.81
3.18
3.88
3.44
3.64
3.72
3.4
3.17
3.42
3.52
3.37
3.59
3.31
3.34
3.58
3.66
3.38
3.05
3.71
10014:
3.23
3.7
3.12
3.79
3.43
10015:
3.71
3.46
3.26
3.6
3.79
3.57
3.85
3.74
3.8
3.67
3.8
3.64
3.52
3.87
3.87
3.59
3.66
3.9
3.56
3.85
4.4
3.88
4.13
3.74
3.41
3.47
4.03
3.66
10016:
2.65
2.75
2.94
3.08
3.62
10017:
3.09
3.49
3.38
10018:
4.06
3.9
3.24
3.33
3.53
3.7
3.63
3.4
3.01
3.85
3.47
3.79
3.33
3.71
3.35
3.73
3.6
3.63
3.51
3.63
4.08
3.33
3.85
3.91
3.51
3.83
3.76
3.75
3.84
3.86
10019:
3.54
2.7
3.69
3.32
4.0
3.94
3.58
3.11
3.72
3.59
4.05
3.29
3.3
3.42
3.7
3.61
3.75
3.64
3.5
4.03
3.7
3.72
3.71
3.59
3.78
3.63
3.36
3.44
3.53
3.7
3.68
3.2
3.7
3.82
3.44
3.83
3.0
3.77
3.79
3.88
3.82
3.93
3.87
3.74
3.93
3.28
3.72
3.9
3.55
3.58
3.38
3.48
3.8
3.45
2.2
3.0
3.14
3.41
4.0
3.46
3.29
3.51
4.14
3.5
3.83
4.2
3.48
4.16
3.6
1002:
3.58
3.15
3.49
3.59
3.22
3.62
3.92
3.02
3.58
3.65
3.91
3.53
3.47
3.33
10020:
3.86
3.9
3.76
3.96
3.79
3.68
3.75
3.98
3.92
3.83
3.8
4.31
3.92
3.64
3.83
3.81
3.98
3.57
3.93
3.64
4.05
3.53
3.74
3.75
3.48
3.08
3.96
10021:
2.82
3.0
3.08
2.88
10022:
2.86
3.42
3.2
3.17
3.52
3.43
2.98
3.0
10023:
3.79
3.76
3.79
3.61
4.24
3.61
3.53
3.75
3.57
3.8
4.04
10024:
3.6
3.8
3.59
3.74
3.61
3.63
3.34
3.43
3.67
3.68
10025:
3.24
10027:
4.12
3.86
3.72
3.7
3.35
3.7
3.53
4.29
3.42
4.11
3.74
3.79
3.92
3.6
3.79
4.17
3.65
3.88
3.95
3.91
3.5
3.73
3.75
3.86
3.98
3.87
4.04
4.1
4.42
4.11
4.14
3.96
3.49
3.76
4.06
3.96
4.24
3.88
3.9
3.63
4.06
4.12
4.37
3.72
3.68
4.1
3.87
3.82
3.97
4.02
3.79
4.0
3.69
3.65
3.59
3.81
3.61
3.64
4.05
3.96
3.7
3.53
4.14
3.49
4.12
4.39
3.57
3.92
3.5
3.98
3.94
3.93
4.07
3.95
4.12
3.84
3.99
3.7
3.31
3.69
4.23
4.29
3.56
3.84
3.88
4.01
3.75
3.89
10028:
3.24
3.36
3.24
3.74
3.99
3.2
3.9
10029:
3.34
3.79
3.78
3.17
10031:
3.46
3.21
3.65
2.99
3.74
3.3
3.14
2.89
3.17
10032:
3.42
4.25
3.94
3.99
3.89
3.24
3.61
3.52
3.75
3.12
3.39
3.96
4.2
3.57
3.94
3.21
3.66
3.57
3.52
3.68
3.44
3.62
3.49
3.55
3.77
3.37
3.31
3.59
4.09
3.45
3.63
3.74
3.93
3.73
3.14
3.85
3.68
3.48
3.55
3.65
3.6
3.66
3.59
3.34
3.53
3.65
3.82
10033:
3.64
3.36
3.01
3.51
3.44
3.1
3.55
3.23
3.55
3.24
3.59
3.41
4.05
3.67
10034:
2.52
3.48
10035:
3.15
4.2
4.13
4.06
4.09
4.08
3.91
3.7
3.64
3.73
3.87
3.82
3.88
3.94
3.8
3.81
3.91
4.04
3.99
4.47
10036:
3.91
3.54
3.63
3.5
3.8
3.81
3.36
3.72
3.27
3.39
3.42
3.67
3.91
3.82
4.16
3.86
3.68
3.85
3.15
3.39
3.74
3.54
4.35
3.82
3.66
3.96
3.79
3.88
3.87
3.35
3.64
3.41
3.35
3.51
3.31
3.6
3.74
3.72
3.61
3.86
3.55
3.66
3.99
3.77
3.84
3.95
4.14
4.41
3.43
3.9
3.5
3.79
3.65
3.32
3.67
3.75
3.65
4.31
3.63
3.89
3.74
4.03
3.48
4.08
3.38
4.11
3.76
3.66
3.78
3.86
4.2
3.91
3.82
3.52
3.78
3.95
3.97
3.48
3.93
3.92
3.75
3.71
4.13
3.88
3.25
3.76
3.6
3.81
3.83
3.52
3.16
3.98
3.62
3.93
3.64
3.49
3.48
3.81
3.59
3.93
3.92
3.27
3.62
4.09
3.65
3.31
4.29
3.46
3.7
3.79
3.76
3.54
3.56
3.66
3.59
3.7
4.16
3.55
3.64
3.83
3.72
3.77
3.85
3.7
3.83
3.47
3.78
4.12
3.66
3.53
4.01
3.44
3.49
4.41
3.68
3.48
3.86
3.72
3.95
3.33
4.1
3.96
3.75
3.69
3.44
4.21
3.52
3.8
3.57
3.55
4.0
3.82
3.91
3.65
3.63
3.58
4.27
3.83
3.68
4.06
3.9
3.66
3.82
3.89
3.7
3.7
3.89
4.04
3.93
3.61
3.55
3.62
3.94
3.68
3.83
3.82
3.63
3.9
3.82
4.06
3.7
4.06
3.47
3.77
4.21
3.65
3.7
3.51
3.87
3.72
3.63
3.5
3.81
4.17
3.9
3.37
3.7
3.98
3.43
3.75
3.72
3.74
3.57
3.85
3.35
4.32
3.73
4.11
3.91
3.65
3.63
3.57
4.04
3.66
3.58
10037:
3.78
3.25
3.45
3.7
3.62
3.66
3.39
3.1
3.47
3.66
3.48
3.45
3.44
3.47
10038:
3.89
3.42
3.32
3.41
3.32
3.56
3.56
3.22
10039:
2.59
1004:
2.96
2.81
3.33
3.14
3.32
3.27
3.03
3.61
2.88
3.28
3.36
3.48
3.48
3.53
3.07
2.88
3.22
3.32
3.13
3.23
3.3
3.53
3.53
2.58
3.03
2.83
3.25
3.26
3.1
3.27
3.03
10040:
3.34
3.21
3.58
10041:
3.88
3.25
3.43
3.15
3.32
3.29
3.67
3.3
2.29
3.16
2.04
3.48
3.69
2.94
3.4
3.44
3.35
3.1
3.24
3.0
3.22
3.41
3.24
3.33
3.47
2.97
3.4
3.0
3.36
3.02
3.44
10042:
4.19
3.82
4.14
3.91
4.11
4.63
4.42
4.04
4.43
4.0
4.21
4.0
4.29
4.09
4.15
4.29
3.75
4.5
4.4
4.18
4.75
4.34
3.68
4.1
4.17
4.44
4.37
3.58
4.25
4.19
4.27
4.24
4.14
4.31
4.25
4.48
4.15
4.5
4.05
3.81
4.2
4.05
4.02
3.95
4.5
4.37
4.16
3.92
4.15
3.89
3.99
4.32
4.43
3.25
4.61
4.38
3.73
4.2
3.84
4.05
4.14
4.23
4.17
4.15
3.71
3.81
4.02
4.62
4.19
3.96
3.97
4.18
4.16
3.99
3.75
4.42
4.33
4.1
4.12
4.25
3.87
4.45
4.19
4.12
4.37
3.98
4.44
4.24
3.82
4.43
3.99
4.19
4.73
4.07
4.1
4.05
3.97
4.16
4.16
4.01
4.29
4.31
3.84
4.53
4.28
4.06
4.11
4.13
4.51
4.22
4.41
4.15
4.2
4.3
4.07
4.15
4.16
3.93
4.19
4.44
3.88
4.44
4.09
4.5
4.25
4.62
3.82
3.99
4.19
3.92
3.98
4.17
4.12
3.2
4.07
4.14
4.49
4.62
3.93
4.75
4.07
4.53
4.1
3.8
4.19
4.05
4.2
3.72
3.95
4.29
3.99
4.22
4.61
4.14
4.28
3.81
4.02
3.75
3.86
4.25
3.81
4.38
4.15
4.2
3.88
4.36
4.02
3.99
4.07
4.14
4.35
4.35
3.92
4.16
4.34
4.01
4.26
4.45
4.58
4.01
4.13
4.75
4.67
4.01
4.17
4.45
3.97
3.78
4.06
4.34
3.98
4.12
4.29
3.88
4.34
4.48
4.36
4.11
4.15
4.13
4.25
4.34
4.19
4.25
4.24
3.45
4.25
4.19
4.2
4.02
3.96
4.04
4.42
4.39
4.46
4.33
4.63
4.25
4.12
4.26
4.11
4.27
4.39
4.33
4.18
4.24
4.34
3.98
4.5
4.1
4.16
4.17
4.35
4.75
4.43
4.09
4.75
3.96
4.4
4.14
3.97
4.5
4.42
4.31
4.25
4.64
4.53
4.3
4.12
4.22
3.78
4.11
4.52
4.09
3.96
4.61
3.98
4.28
4.27
3.87
4.1
4.25
4.01
4.45
3.74
4.07
4.43
4.28
4.18
4.01
4.14
4.37
4.1
3.96
4.55
3.93
4.15
4.12
4.46
4.28
4.12
3.98
4.29
4.02
4.24
4.04
4.07
4.35
4.01
4.23
4.23
3.88
4.26
3.97
3.95
3.91
4.05
4.27
4.03
4.07
4.28
4.17
4.19
4.2
3.84
4.15
4.11
4.4
4.25
4.02
4.14
4.2
4.75
4.23
4.11
4.44
4.25
4.36
4.33
4.01
4.26
4.04
4.34
4.27
4.39
4.29
4.34
4.18
4.4
4.13
4.35
4.75
3.82
4.31
4.0
4.29
4.39
4.59
4.01
4.38
4.36
4.48
4.36
4.69
3.96
4.25
4.27
4.44
3.99
4.38
4.46
4.0
4.31
4.2
3.91
4.22
4.37
4.31
4.02
4.25
3.99
4.0
4.12
4.18
4.14
4.02
3.89
4.0
4.5
4.59
4.55
4.12
4.1
4.03
4.22
4.51
3.81
3.72
4.21
4.25
4.14
4.17
3.85
4.11
4.0
4.33
4.17
4.04
3.91
4.14
4.16
4.01
4.15
3.84
3.94
4.52
4.16
3.99
4.1
4.12
4.09
4.07
3.91
4.0
4.12
4.15
4.25
4.09
3.75
4.3
4.38
3.91
4.2
4.11
4.75
4.21
3.91
4.45
4.15
3.83
4.61
4.15
4.22
4.44
4.19
4.01
4.34
4.48
4.38
4.11
4.02
4.36
3.89
4.17
4.59
3.83
4.08
3.5
4.0
4.75
4.75
4.39
4.15
4.15
4.45
4.48
4.47
4.3
4.05
3.9
4.03
4.37
4.42
4.32
4.42
4.37
3.94
4.22
3.91
4.34
4.19
4.13
4.09
3.9
4.65
4.15
4.52
4.44
4.24
4.51
4.29
4.11
3.97
4.41
4.34
4.34
4.23
4.45
3.96
3.84
4.19
4.24
4.05
3.9
4.75
4.01
4.75
4.13
4.27
3.98
4.12
4.01
3.87
4.16
4.11
4.28
4.06
4.18
4.15
3.96
4.11
3.91
4.11
3.9
3.92
4.42
4.22
4.3
3.85
4.18
4.13
4.31
4.19
4.07
4.3
4.33
4.54
4.7
3.96
4.09
4.3
3.97
3.93
4.08
4.54
4.25
4.11
3.73
3.69
4.48
4.3
3.91
4.18
4.27
4.44
4.03
4.53
4.52
4.33
4.13
3.93
4.35
4.27
4.14
4.38
4.75
3.78
4.55
4.61
4.14
4.03
3.6
4.39
2.75
4.06
4.3
4.14
4.0
3.94
4.49
4.12
3.88
4.28
4.11
4.26
4.36
4.05
3.89
4.15
3.75
4.18
3.48
3.85
4.38
3.93
4.44
4.13
3.75
4.12
4.13
4.59
3.93
4.09
3.99
4.21
4.25
4.45
4.56
4.39
4.05
4.05
4.16
3.92
3.98
3.76
4.11
4.22
4.25
4.04
3.9
4.16
4.4
4.15
4.06
3.74
4.23
4.06
4.08
4.43
3.86
4.0
3.92
4.75
4.28
3.95
4.02
3.75
4.54
4.3
3.95
3.87
4.11
4.22
3.99
3.83
4.15
3.8
3.75
4.21
4.05
4.17
4.27
4.18
4.01
4.11
3.91
4.53
4.16
4.08
4.53
4.09
3.89
4.23
4.2
4.3
4.28
4.52
4.05
4.09
4.05
4.13
4.13
4.15
4.26
4.36
4.27
4.08
4.5
4.05
4.2
3.65
4.44
3.77
4.02
4.27
4.36
4.09
3.9
4.06
4.18
4.13
3.99
4.31
4.4
4.52
4.22
3.85
4.18
4.13
3.99
4.4
4.03
4.27
3.87
4.11
4.03
4.06
4.75
4.03
4.07
4.02
4.39
4.12
4.07
4.14
4.22
4.23
4.31
4.14
4.12
4.53
3.53
4.25
4.22
4.25
4.31
4.09
3.98
3.98
4.12
4.09
3.94
4.18
4.33
4.21
4.36
4.25
4.25
4.53
4.22
3.9
4.36
4.46
4.22
3.85
3.97
4.2
3.59
3.88
3.92
4.17
4.04
4.4
3.96
4.4
4.3
4.04
4.09
4.75
4.0
4.12
4.11
3.78
4.28
4.17
4.12
4.35
4.27
4.26
4.46
3.96
4.4
4.42
4.2
4.21
4.5
10043:
3.95
3.91
3.83
4.13
3.79
3.79
3.59
3.9
4.24
3.72
3.98
4.12
3.81
4.25
3.84
3.61
4.09
3.87
3.92
3.7
4.07
4.05
4.02
4.09
3.68
4.02
3.9
4.12
4.06
3.54
3.89
3.92
3.85
3.92
3.95
3.7
3.88
4.11
4.14
3.62
3.22
3.63
3.23
3.82
3.72
3.95
3.78
4.07
3.79
4.02
3.85
3.95
3.71
3.9
3.98
3.69
3.72
3.69
4.05
4.23
3.79
4.03
3.64
3.82
10044:
3.87
3.68
3.46
3.55
3.74
4.04
3.74
3.74
3.41
3.55
3.59
3.29
3.41
3.85
4.16
4.17
4.03
3.28
4.16
3.95
3.6
3.83
3.62
3.88
3.51
3.55
3.31
3.7
3.78
3.83
3.53
3.84
4.03
3.5
3.93
3.68
3.72
3.79
3.6
3.52
3.78
4.28
3.58
3.29
4.0
3.57
3.66
3.36
3.71
3.69
3.59
0.89
